{"name":"Listar usuarios exitosamente","id":"gestión-de-usuarios-en-la-api-reqres;listar-usuarios-exitosamente","scenarioId":"classpath:features/usuarios_reqres:Listar usuarios exitosamente","methodName":"Listar usuarios exitosamente","testSteps":[{"number":1,"description":"Given que el servicio de usuarios de ReqRes está disponible","duration":3534,"startTime":"2026-06-07T10:01:17.952875700-05:00[America/Bogota]","result":"SUCCESS","precondition":false,"level":0,"children":[{"number":2,"description":"Analista api get users","duration":2504,"startTime":"2026-06-07T10:01:18.311959-05:00[America/Bogota]","result":"SUCCESS","precondition":false,"level":1,"children":[{"number":3,"description":"GET https://reqres.in/api/users?page\u003d2","duration":0,"startTime":"2026-06-07T10:01:26.006017100-05:00[America/Bogota]","result":"SUCCESS","restQuery":{"method":"GET","path":"https://reqres.in/api/users?page\u003d2","content":"","contentType":"application/json","requestHeaders":"x-api-key\u003dfree_user_3ElwmrbRF1kA0n5uDv8KZLsuDuF\r\n\t\t\t\tAccept\u003d*/*\r\n\t\t\t\tContent-Type\u003dapplication/json","requestCookies":"","responseHeaders":"Date: Sun, 07 Jun 2026 15:01:21 GMT\r\nContent-Type: application/json; charset\u003dutf-8\r\nTransfer-Encoding: chunked\r\nConnection: keep-alive\r\nAccess-Control-Allow-Origin: *\r\nCache-Control: public, max-age\u003d14400, s-maxage\u003d60\r\ncdn-cache-control: max-age\u003d60\r\nCross-Origin-Opener-Policy: same-origin\r\nCross-Origin-Resource-Policy: same-origin\r\netag: W/\"5f7-gJiYqcwcxD7jRj00kOp90HWgPMY\"\r\nNel: {\"report_to\":\"heroku-nel\",\"response_headers\":[\"Via\"],\"max_age\":3600,\"success_fraction\":0.01,\"failure_fraction\":0.1}\r\nOrigin-Agent-Cluster: ?1\r\nRatelimit-Limit: 20\r\nRatelimit-Policy: 20;w\u003d60\r\nRatelimit-Remaining: 19\r\nRatelimit-Reset: 60\r\nReferrer-Policy: strict-origin-when-cross-origin\r\nReport-To: {\"group\":\"heroku-nel\",\"endpoints\":[{\"url\":\"https://nel.heroku.com/reports?s\u003dpUkdDL5PcSz7geP8Ri2PJvezfADsT9zSvgouocW0xX0%3D\\u0026sid\u003dc4c9725f-1ab0-44d8-820f-430df2718e11\\u0026ts\u003d1780844129\"}],\"max_age\":3600}\r\nReporting-Endpoints: heroku-nel\u003d\"https://nel.heroku.com/reports?s\u003dpUkdDL5PcSz7geP8Ri2PJvezfADsT9zSvgouocW0xX0%3D\u0026sid\u003dc4c9725f-1ab0-44d8-820f-430df2718e11\u0026ts\u003d1780844129\"\r\nServer: cloudflare\r\nStrict-Transport-Security: max-age\u003d31536000; includeSubDomains\r\nVia: 1.1 heroku-router\r\nX-Content-Type-Options: nosniff\r\nX-Dns-Prefetch-Control: off\r\nX-Download-Options: noopen\r\nX-Frame-Options: DENY\r\nX-Permitted-Cross-Domain-Policies: none\r\nX-Powered-By: ReqRes.in - Deploy backends in 30 seconds\r\nX-Ratelimit-Limit: 250\r\nX-Ratelimit-Remaining: 217\r\nX-Ratelimit-Reset: 1780876800\r\nX-Reqres-Docs: https://reqres.in\r\nX-Reqres-Message: This API is powered by ReqRes. Deploy your own backend in 30 seconds!\r\nX-Reqres-Templates: https://app.reqres.in/templates\r\nX-Reqres-Tip: Generate a complete backend from a description - app.reqres.in/dashboard\r\nX-Reqres-Trial: true\r\nX-Reqres-Trial-Days-Remaining: 14\r\nX-Reqres-Trial-Expires: 2026-06-20T17:23:46.002Z\r\nX-Reqres-Upgrade: https://app.reqres.in/upgrade\r\nX-Request-Id: 10cf63e2-8c54-5f99-5168-d6b03202a04d\r\nX-Robots-Tag: noindex, nofollow\r\nX-Xss-Protection: 0\r\ncf-cache-status: REVALIDATED\r\nContent-Encoding: gzip\r\nCF-RAY: a08088181a5b337d-MIA\r","responseCookies":"\r","responseBody":"{\n    \"page\": 2,\n    \"per_page\": 6,\n    \"total\": 12,\n    \"total_pages\": 2,\n    \"data\": [\n        {\n            \"id\": 7,\n            \"email\": \"michael.lawson@reqres.in\",\n            \"first_name\": \"Michael\",\n            \"last_name\": \"Lawson\",\n            \"avatar\": \"https://reqres.in/img/faces/7-image.jpg\"\n        },\n        {\n            \"id\": 8,\n            \"email\": \"lindsay.ferguson@reqres.in\",\n            \"first_name\": \"Lindsay\",\n            \"last_name\": \"Ferguson\",\n            \"avatar\": \"https://reqres.in/img/faces/8-image.jpg\"\n        },\n        {\n            \"id\": 9,\n            \"email\": \"tobias.funke@reqres.in\",\n            \"first_name\": \"Tobias\",\n            \"last_name\": \"Funke\",\n            \"avatar\": \"https://reqres.in/img/faces/9-image.jpg\"\n        },\n        {\n            \"id\": 10,\n            \"email\": \"byron.fields@reqres.in\",\n            \"first_name\": \"Byron\",\n            \"last_name\": \"Fields\",\n            \"avatar\": \"https://reqres.in/img/faces/10-image.jpg\"\n        },\n        {\n            \"id\": 11,\n            \"email\": \"george.edwards@reqres.in\",\n            \"first_name\": \"George\",\n            \"last_name\": \"Edwards\",\n            \"avatar\": \"https://reqres.in/img/faces/11-image.jpg\"\n        },\n        {\n            \"id\": 12,\n            \"email\": \"rachel.howell@reqres.in\",\n            \"first_name\": \"Rachel\",\n            \"last_name\": \"Howell\",\n            \"avatar\": \"https://reqres.in/img/faces/12-image.jpg\"\n        }\n    ],\n    \"support\": {\n        \"url\": \"https://benhowdle.im/first-cto-playbook?utm_source\u003dreqres\u0026utm_medium\u003djson\u0026utm_campaign\u003dreferral\",\n        \"text\": \"Become a better CTO. A playbook of painful stories and practical advice from a two-time startup CTO.\"\n    },\n    \"_meta\": {\n        \"powered_by\": \"ReqRes\",\n        \"docs_url\": \"https://app.reqres.in/documentation\",\n        \"upgrade_url\": \"https://app.reqres.in/upgrade\",\n        \"example_url\": \"https://app.reqres.in/examples/notes-app\",\n        \"variant\": \"v1_a\",\n        \"message\": \"Your data persists here. Add auth, logs, and custom schemas to build a real backend.\",\n        \"cta\": {\n            \"label\": \"See example app\",\n            \"url\": \"https://app.reqres.in/examples/notes-app\"\n        },\n        \"context\": \"legacy_success\"\n    }\n}","statusCode":200},"precondition":false,"level":2}]},{"number":4,"description":"Then el c\u0026oacute;digo de disponibilidad del servicio de usuarios should be (200)","duration":8,"startTime":"2026-06-07T10:01:20.930398600-05:00[America/Bogota]","result":"SUCCESS","precondition":false,"level":1},{"number":5,"description":"Then la respuesta de disponibilidad contiene usuarios should be a value greater than (0)","duration":539,"startTime":"2026-06-07T10:01:20.939358600-05:00[America/Bogota]","result":"SUCCESS","precondition":false,"level":1}]},{"number":6,"description":"When el actor consulta la lista de usuarios de la página 2","duration":300,"startTime":"2026-06-07T10:01:21.489627800-05:00[America/Bogota]","result":"SUCCESS","precondition":false,"level":0,"children":[{"number":7,"description":"Analista api get users","duration":284,"startTime":"2026-06-07T10:01:21.493626300-05:00[America/Bogota]","result":"SUCCESS","precondition":false,"level":1,"children":[{"number":8,"description":"GET https://reqres.in/api/users?page\u003d2","duration":0,"startTime":"2026-06-07T10:01:26.008016900-05:00[America/Bogota]","result":"SUCCESS","restQuery":{"method":"GET","path":"https://reqres.in/api/users?page\u003d2","content":"","contentType":"application/json","requestHeaders":"x-api-key\u003dfree_user_3ElwmrbRF1kA0n5uDv8KZLsuDuF\r\n\t\t\t\tAccept\u003d*/*\r\n\t\t\t\tContent-Type\u003dapplication/json","requestCookies":"","responseHeaders":"Date: Sun, 07 Jun 2026 15:01:22 GMT\r\nContent-Type: application/json; charset\u003dutf-8\r\nTransfer-Encoding: chunked\r\nConnection: keep-alive\r\nAccess-Control-Allow-Origin: *\r\nCache-Control: public, max-age\u003d14400, s-maxage\u003d60\r\ncdn-cache-control: max-age\u003d60\r\nCross-Origin-Opener-Policy: same-origin\r\nCross-Origin-Resource-Policy: same-origin\r\netag: W/\"5f7-gJiYqcwcxD7jRj00kOp90HWgPMY\"\r\nNel: {\"report_to\":\"heroku-nel\",\"response_headers\":[\"Via\"],\"max_age\":3600,\"success_fraction\":0.01,\"failure_fraction\":0.1}\r\nOrigin-Agent-Cluster: ?1\r\nRatelimit-Limit: 20\r\nRatelimit-Policy: 20;w\u003d60\r\nRatelimit-Remaining: 19\r\nRatelimit-Reset: 60\r\nReferrer-Policy: strict-origin-when-cross-origin\r\nReport-To: {\"group\":\"heroku-nel\",\"endpoints\":[{\"url\":\"https://nel.heroku.com/reports?s\u003dpUkdDL5PcSz7geP8Ri2PJvezfADsT9zSvgouocW0xX0%3D\\u0026sid\u003dc4c9725f-1ab0-44d8-820f-430df2718e11\\u0026ts\u003d1780844129\"}],\"max_age\":3600}\r\nReporting-Endpoints: heroku-nel\u003d\"https://nel.heroku.com/reports?s\u003dpUkdDL5PcSz7geP8Ri2PJvezfADsT9zSvgouocW0xX0%3D\u0026sid\u003dc4c9725f-1ab0-44d8-820f-430df2718e11\u0026ts\u003d1780844129\"\r\nServer: cloudflare\r\nStrict-Transport-Security: max-age\u003d31536000; includeSubDomains\r\nVia: 1.1 heroku-router\r\nX-Content-Type-Options: nosniff\r\nX-Dns-Prefetch-Control: off\r\nX-Download-Options: noopen\r\nX-Frame-Options: DENY\r\nX-Permitted-Cross-Domain-Policies: none\r\nX-Powered-By: ReqRes.in - Deploy backends in 30 seconds\r\nX-Ratelimit-Limit: 250\r\nX-Ratelimit-Remaining: 217\r\nX-Ratelimit-Reset: 1780876800\r\nX-Reqres-Docs: https://reqres.in\r\nX-Reqres-Message: This API is powered by ReqRes. Deploy your own backend in 30 seconds!\r\nX-Reqres-Templates: https://app.reqres.in/templates\r\nX-Reqres-Tip: Generate a complete backend from a description - app.reqres.in/dashboard\r\nX-Reqres-Trial: true\r\nX-Reqres-Trial-Days-Remaining: 14\r\nX-Reqres-Trial-Expires: 2026-06-20T17:23:46.002Z\r\nX-Reqres-Upgrade: https://app.reqres.in/upgrade\r\nX-Request-Id: 10cf63e2-8c54-5f99-5168-d6b03202a04d\r\nX-Robots-Tag: noindex, nofollow\r\nX-Xss-Protection: 0\r\nAge: 1\r\ncf-cache-status: HIT\r\nContent-Encoding: gzip\r\nCF-RAY: a08088200f16ad73-MIA\r","responseCookies":"\r","responseBody":"{\n    \"page\": 2,\n    \"per_page\": 6,\n    \"total\": 12,\n    \"total_pages\": 2,\n    \"data\": [\n        {\n            \"id\": 7,\n            \"email\": \"michael.lawson@reqres.in\",\n            \"first_name\": \"Michael\",\n            \"last_name\": \"Lawson\",\n            \"avatar\": \"https://reqres.in/img/faces/7-image.jpg\"\n        },\n        {\n            \"id\": 8,\n            \"email\": \"lindsay.ferguson@reqres.in\",\n            \"first_name\": \"Lindsay\",\n            \"last_name\": \"Ferguson\",\n            \"avatar\": \"https://reqres.in/img/faces/8-image.jpg\"\n        },\n        {\n            \"id\": 9,\n            \"email\": \"tobias.funke@reqres.in\",\n            \"first_name\": \"Tobias\",\n            \"last_name\": \"Funke\",\n            \"avatar\": \"https://reqres.in/img/faces/9-image.jpg\"\n        },\n        {\n            \"id\": 10,\n            \"email\": \"byron.fields@reqres.in\",\n            \"first_name\": \"Byron\",\n            \"last_name\": \"Fields\",\n            \"avatar\": \"https://reqres.in/img/faces/10-image.jpg\"\n        },\n        {\n            \"id\": 11,\n            \"email\": \"george.edwards@reqres.in\",\n            \"first_name\": \"George\",\n            \"last_name\": \"Edwards\",\n            \"avatar\": \"https://reqres.in/img/faces/11-image.jpg\"\n        },\n        {\n            \"id\": 12,\n            \"email\": \"rachel.howell@reqres.in\",\n            \"first_name\": \"Rachel\",\n            \"last_name\": \"Howell\",\n            \"avatar\": \"https://reqres.in/img/faces/12-image.jpg\"\n        }\n    ],\n    \"support\": {\n        \"url\": \"https://benhowdle.im/first-cto-playbook?utm_source\u003dreqres\u0026utm_medium\u003djson\u0026utm_campaign\u003dreferral\",\n        \"text\": \"Become a better CTO. A playbook of painful stories and practical advice from a two-time startup CTO.\"\n    },\n    \"_meta\": {\n        \"powered_by\": \"ReqRes\",\n        \"docs_url\": \"https://app.reqres.in/documentation\",\n        \"upgrade_url\": \"https://app.reqres.in/upgrade\",\n        \"example_url\": \"https://app.reqres.in/examples/notes-app\",\n        \"variant\": \"v1_a\",\n        \"message\": \"Your data persists here. Add auth, logs, and custom schemas to build a real backend.\",\n        \"cta\": {\n            \"label\": \"See example app\",\n            \"url\": \"https://app.reqres.in/examples/notes-app\"\n        },\n        \"context\": \"legacy_success\"\n    }\n}","statusCode":200},"precondition":false,"level":2}]}]},{"number":9,"description":"Then la respuesta debe ser exitosa y contener al menos un usuario","duration":36,"startTime":"2026-06-07T10:01:21.790831800-05:00[America/Bogota]","result":"SUCCESS","precondition":false,"level":0,"children":[{"number":10,"description":"Then el c\u0026oacute;digo de respuesta should be (200)","duration":4,"startTime":"2026-06-07T10:01:21.791832100-05:00[America/Bogota]","result":"SUCCESS","precondition":false,"level":1},{"number":11,"description":"Then la cantidad de usuarios en la respuesta should be a value greater than (0)","duration":23,"startTime":"2026-06-07T10:01:21.797832100-05:00[America/Bogota]","result":"SUCCESS","precondition":false,"level":1}]}],"userStory":{"id":"classpath:features/usuarios_reqres","storyName":"Gestión de usuarios en la API ReqRes","displayName":"Gestión de usuarios en la API ReqRes","path":"usuarios_reqres","pathElements":[{"name":"usuarios_reqres","description":""}],"type":"feature"},"title":"Listar usuarios exitosamente","description":"","startTime":"2026-06-07T10:01:17.944803900-05:00[America/Bogota]","endTime":"2026-06-07T10:01:21.836506500-05:00[America/Bogota]","duration":8061,"projectKey":"","isManualTestingUpToDate":false,"manual":false,"testSource":"Cucumber","actors":[{"name":"Analista API"}],"result":"SUCCESS"}